[gd_scene load_steps=7 format=2]

[ext_resource path="res://Sound/restart.wav" type="AudioStream" id=1]
[ext_resource path="res://Sound/loss.wav" type="AudioStream" id=2]
[ext_resource path="res://Sound/hit.wav" type="AudioStream" id=3]
[ext_resource path="res://Sound/fire.wav" type="AudioStream" id=4]
[ext_resource path="res://Music/Track2.mp3" type="AudioStream" id=5]
[ext_resource path="res://Music/Track1.mp3" type="AudioStream" id=6]

[node name="Sc_Sound" type="Node"]

[node name="RestartSound" type="AudioStreamPlayer" parent="."]
stream = ExtResource( 1 )
volume_db = -16.155

[node name="DeathSound" type="AudioStreamPlayer" parent="."]
stream = ExtResource( 2 )

[node name="HitSound" type="AudioStreamPlayer3D" parent="."]
stream = ExtResource( 3 )
bus = "Cast"

[node name="FireSound" type="AudioStreamPlayer3D" parent="."]
stream = ExtResource( 4 )
bus = "Cast"

[node name="MenuMusic" type="AudioStreamPlayer" parent="."]
stream = ExtResource( 6 )
autoplay = true
bus = "Music"

[node name="BattleMusic" type="AudioStreamPlayer" parent="."]
stream = ExtResource( 5 )
bus = "Music"
