[gd_scene load_steps=10 format=2]

[ext_resource path="res://art/enemy-walking-2.png" type="Texture" id=1]
[ext_resource path="res://art/enemy-walking-1.png" type="Texture" id=2]
[ext_resource path="res://Mob.gd" type="Script" id=3]
[ext_resource path="res://art/enemy-flying-1.png" type="Texture" id=4]
[ext_resource path="res://art/enemy-flying-2.png" type="Texture" id=5]
[ext_resource path="res://art/enemy-swimming-1.png" type="Texture" id=6]
[ext_resource path="res://art/enemy-swimming-2.png" type="Texture" id=7]

[sub_resource type="SpriteFrames" id=1]
animations = [ {
"frames": [ ExtResource( 2 ), ExtResource( 1 ) ],
"loop": true,
"name": "walk",
"speed": 5.0
}, {
"frames": [ ExtResource( 6 ), ExtResource( 7 ) ],
"loop": true,
"name": "swim",
"speed": 5.0
}, {
"frames": [ ExtResource( 4 ), ExtResource( 5 ) ],
"loop": true,
"name": "fly",
"speed": 5.0
} ]

[sub_resource type="CapsuleShape2D" id=2]
radius = 46.1916
height = 42.2891

[node name="Mob" type="RigidBody2D"]
script = ExtResource( 3 )

[node name="AnimatedSprite" type="AnimatedSprite" parent="."]
frames = SubResource( 1 )
animation = "walk"

[node name="CollisionShape2D" type="CollisionShape2D" parent="AnimatedSprite" groups=[
"mobs",
]]
position = Vector2( 0, 1.49829 )
rotation = 1.5708
shape = SubResource( 2 )

[node name="VisibilityNotifier2D" type="VisibilityNotifier2D" parent="AnimatedSprite"]
rect = Rect2( -50, -40, 100, 80 )

[connection signal="screen_exited" from="AnimatedSprite/VisibilityNotifier2D" to="." method="_on_VisibilityNotifier2D_screen_exited"]
