; Engine configuration file.
; It's best edited using the editor UI and not directly,
; since the parameters that go here are not all obvious.
;
; Format:
;   [section] ; section goes between []
;   param=value ; assign values to parameters

config_version=4

_global_script_classes=[ {
"base": "KinematicBody",
"class": "Enemy",
"language": "GDScript",
"path": "res://Scripts/Gameplay/CO_Enemy.gd"
}, {
"base": "Node",
"class": "Stats",
"language": "GDScript",
"path": "res://Scripts/Gameplay/CO_Stats.gd"
}, {
"base": "Node",
"class": "Wave",
"language": "GDScript",
"path": "res://Scripts/Gameplay/CO_Wave.gd"
} ]
_global_script_class_icons={
"Enemy": "",
"Stats": "",
"Wave": ""
}

[application]

config/name="Retro Magic"
config/description="You are the Arena fighter, use your magic to defeat your enemies."
run/main_scene="res://Scenes/Core/SC_Main.tscn"
boot_splash/image="res://Global/T_SplashScreen.png"
boot_splash/bg_color=Color( 0, 0, 0, 1 )
config/icon="res://ScreenShots/T-Icon.png"

[audio]

default_bus_layout="res://Global/BS_Bus_Layouts.tres"

[autoload]

CoSceneManager="*res://Scripts/Core/CO_SceneManager.gd"
CoGlobals="*res://Scripts/Core/CO_Globals.gd"
ScSound="*res://Scenes/Core/SC_Sound.tscn"

[display]

window/size/width=640
window/size/height=360
window/size/fullscreen=true
window/size/test_width=1280
window/size/test_height=720
window/stretch/mode="viewport"
window/stretch/aspect="keep"

[importer_defaults]

texture={
"compress/bptc_ldr": 0,
"compress/hdr_mode": 0,
"compress/lossy_quality": 0.7,
"compress/mode": 2,
"compress/normal_map": 0,
"detect_3d": false,
"flags/anisotropic": false,
"flags/filter": true,
"flags/mipmaps": true,
"flags/repeat": true,
"flags/srgb": 1,
"process/HDR_as_SRGB": false,
"process/fix_alpha_border": true,
"process/invert_color": false,
"process/premult_alpha": false,
"size_limit": 0,
"stream": false,
"svg/scale": 1.0
}

[input]

move_forward={
"deadzone": 0.5,
"events": [ Object(InputEventKey,"resource_local_to_scene":false,"resource_name":"","device":0,"alt":false,"shift":false,"control":false,"meta":false,"command":false,"pressed":false,"scancode":87,"physical_scancode":0,"unicode":0,"echo":false,"script":null)
 ]
}
move_backward={
"deadzone": 0.5,
"events": [ Object(InputEventKey,"resource_local_to_scene":false,"resource_name":"","device":0,"alt":false,"shift":false,"control":false,"meta":false,"command":false,"pressed":false,"scancode":83,"physical_scancode":0,"unicode":0,"echo":false,"script":null)
 ]
}
move_right={
"deadzone": 0.5,
"events": [ Object(InputEventKey,"resource_local_to_scene":false,"resource_name":"","device":0,"alt":false,"shift":false,"control":false,"meta":false,"command":false,"pressed":false,"scancode":68,"physical_scancode":0,"unicode":0,"echo":false,"script":null)
 ]
}
move_left={
"deadzone": 0.5,
"events": [ Object(InputEventKey,"resource_local_to_scene":false,"resource_name":"","device":0,"alt":false,"shift":false,"control":false,"meta":false,"command":false,"pressed":false,"scancode":65,"physical_scancode":0,"unicode":0,"echo":false,"script":null)
 ]
}
jump={
"deadzone": 0.5,
"events": [ Object(InputEventKey,"resource_local_to_scene":false,"resource_name":"","device":0,"alt":false,"shift":false,"control":false,"meta":false,"command":false,"pressed":false,"scancode":32,"physical_scancode":0,"unicode":0,"echo":false,"script":null)
 ]
}
primary_action={
"deadzone": 0.5,
"events": [ Object(InputEventMouseButton,"resource_local_to_scene":false,"resource_name":"","device":0,"alt":false,"shift":false,"control":false,"meta":false,"command":false,"button_mask":0,"position":Vector2( 0, 0 ),"global_position":Vector2( 0, 0 ),"factor":1.0,"button_index":1,"pressed":false,"doubleclick":false,"script":null)
 ]
}

[layer_names]

3d_physics/layer_1="World"
3d_physics/layer_2="Player"
3d_physics/layer_3="Enemy"

[physics]

common/enable_pause_aware_picking=true

[rendering]

environment/default_environment="res://Global/BS_Environment.tres"
quality/dynamic_fonts/use_oversampling=false
