[gd_scene load_steps=10 format=2]

[ext_resource path="res://Materials/DefaultMaterial/MT_Default_Grey.tres" type="Material" id=1]
[ext_resource path="res://Scripts/Gameplay/CO_Spawner.gd" type="Script" id=2]
[ext_resource path="res://Materials/DefaultMaterial/MT_Default_Orange.tres" type="Material" id=3]
[ext_resource path="res://Materials/DefaultMaterial/MT_Default_Black.tres" type="Material" id=4]
[ext_resource path="res://Scripts/Gameplay/CO_Wave.gd" type="Script" id=5]
[ext_resource path="res://Scenes/Characters/SC_Enemy.tscn" type="PackedScene" id=6]
[ext_resource path="res://Scenes/Characters/SC_Player.tscn" type="PackedScene" id=7]
[ext_resource path="res://Scripts/Main/Co_Battle.gd" type="Script" id=8]

[sub_resource type="NavigationMesh" id=1]
vertices = PoolVector3Array( -26.7, 3.99306, -35.4, -35.4, 3.99306, -35.4, -33.3, 3.99306, -34.2, -25.2, 3.99306, -34.5, -35.4, 3.99306, 8.7, -35.4, 3.99306, 17.7, -33.3, 3.99306, 17.1, -33.3, 3.99306, 8.4, -17.7, 3.99306, -35.4, -26.7, 3.99306, -35.4, -25.2, 3.99306, -34.5, -16.8, 3.99306, -34.5, 33.6, 3.99306, 34.2, 25.2, 3.99306, 34.5, 26.4, 3.99306, 35.4, 35.4, 3.99306, 35.4, -33.3, 3.99306, -34.2, -35.4, 3.99306, -35.4, -35.4, 3.99306, -26.7, -33.3, 3.99306, -25.8, 25.2, 3.99306, 34.5, 16.8, 3.99306, 34.5, 17.7, 3.99306, 35.4, 26.4, 3.99306, 35.4, -9, 3.99306, -35.4, -17.7, 3.99306, -35.4, -16.8, 3.99306, -34.5, -8.4, 3.99306, -34.5, -9, 3.99306, 35.4, -8.4, 3.99306, 34.5, -16.8, 3.99306, 34.5, -17.7, 3.99306, 35.4, -33.3, 3.99306, -25.8, -35.4, 3.99306, -26.7, -35.4, 3.99306, -17.7, -33.3, 3.99306, -17.1, -33.3, 3.99306, 34.2, -35.4, 3.99306, 35.4, -26.7, 3.99306, 35.4, -25.2, 3.99306, 34.5, -33.3, 3.99306, -17.1, -35.4, 3.99306, -17.7, -35.4, 3.99306, -9, -33.3, 3.99306, -8.7, 35.4, 3.99306, 8.7, 33.6, 3.99306, 8.4, 33.6, 3.99306, 17.1, 35.4, 3.99306, 17.7, 0, 3.99306, -35.4, -9, 3.99306, -35.4, -8.4, 3.99306, -34.5, 0, 3.99306, -34.5, -33.3, 3.99306, 25.5, -33.3, 3.99306, 17.1, -35.4, 3.99306, 17.7, -35.4, 3.99306, 26.4, 0, 3.99306, -35.4, 0, 3.99306, -34.5, 8.4, 3.99306, -34.5, 8.7, 3.99306, -35.4, -35.4, 3.99306, 26.4, -35.4, 3.99306, 35.4, -33.3, 3.99306, 34.2, -33.3, 3.99306, 25.5, 8.7, 3.99306, -35.4, 8.4, 3.99306, -34.5, 16.8, 3.99306, -34.5, 17.7, 3.99306, -35.4, 8.7, 3.99306, 35.4, 17.7, 3.99306, 35.4, 16.8, 3.99306, 34.5, 8.4, 3.99306, 34.5, 17.7, 3.99306, -35.4, 16.8, 3.99306, -34.5, 25.2, 3.99306, -34.5, 26.4, 3.99306, -35.4, 0, 3.99306, 35.4, 8.7, 3.99306, 35.4, 8.4, 3.99306, 34.5, 0, 3.99306, 34.5, 26.4, 3.99306, -35.4, 25.2, 3.99306, -34.5, 33.6, 3.99306, -34.2, 35.4, 3.99306, -35.4, 35.4, 3.99306, 17.7, 33.6, 3.99306, 17.1, 33.6, 3.99306, 25.5, 35.4, 3.99306, 26.4, 35.4, 3.99306, -26.7, 35.4, 3.99306, -35.4, 33.6, 3.99306, -34.2, 33.6, 3.99306, -25.8, 0, 3.99306, 35.4, 0, 3.99306, 34.5, -8.4, 3.99306, 34.5, -9, 3.99306, 35.4, 35.4, 3.99306, -17.7, 35.4, 3.99306, -26.7, 33.6, 3.99306, -25.8, 33.6, 3.99306, -17.1, -25.2, 3.99306, 34.5, -26.7, 3.99306, 35.4, -17.7, 3.99306, 35.4, -16.8, 3.99306, 34.5, 35.4, 3.99306, -9, 35.4, 3.99306, -17.7, 33.6, 3.99306, -17.1, 33.6, 3.99306, -8.7, 35.4, 3.99306, 26.4, 33.6, 3.99306, 25.5, 33.6, 3.99306, 34.2, 35.4, 3.99306, 35.4, 35.4, 3.99306, 0, 35.4, 3.99306, -9, 33.6, 3.99306, -8.7, 33.6, 3.99306, 0, -35.4, 3.99306, 0, -33.3, 3.99306, 0, -33.3, 3.99306, -8.7, -35.4, 3.99306, -9, 35.4, 3.99306, 0, 33.6, 3.99306, 0, 33.6, 3.99306, 8.4, 35.4, 3.99306, 8.7, -33.3, 3.99306, 8.4, -33.3, 3.99306, 0, -35.4, 3.99306, 0, -35.4, 3.99306, 8.7, -32.1, -2.00694, -9.3, -30.6, -2.00694, -9, -30.3, -2.00694, -11.4, -32.1, -2.00694, -21.3, -23.1, -2.00694, -7.8, -18, -2.00694, -7.8, -17.7, -2.00694, -9.3, -23.4, -2.00694, -11.7, -23.7, -2.00694, -33.3, -32.1, -2.00694, -33.3, -32.1, -2.00694, -21.3, -23.4, -2.00694, -11.7, -17.7, -2.00694, -9.3, -15, -2.00694, -9.3, -15, -2.00694, -33.3, -23.7, -2.00694, -33.3, -32.1, -2.00694, -21.3, -32.1, -2.00694, -21.3, -30.3, -2.00694, -11.4, -23.4, -2.00694, -11.7, -14.4, -2.00694, -8.7, -1.2, -2.00694, -15, -1.8, -2.00694, -15.3, -15, -2.00694, -9.3, -14.4, -2.00694, -8.7, -1.8, -2.00694, -15.3, -1.8, -2.00694, -18, -7.5, -2.00694, -33.3, -15, -2.00694, -33.3, -1.8, -2.00694, -18, 0, -2.00694, -18.3, 0, -2.00694, -33.3, -7.5, -2.00694, -33.3, 13.5, -2.00694, -26.7, 15.6, -2.00694, -27, 15.6, -2.00694, -33.3, 7.8, -2.00694, -33.3, 13.5, -2.00694, -21.9, 13.5, -2.00694, -26.7, 7.8, -2.00694, -33.3, 0, -2.00694, -33.3, 0, -2.00694, -18.3, 1.2, -2.00694, -18.3, 15.6, -2.00694, -33.3, 15.6, -2.00694, -27, 18, -2.00694, -26.7, 24, -2.00694, -33.3, 24, -2.00694, -33.3, 18, -2.00694, -26.7, 18, -2.00694, -24, 32.4, -2.00694, -24, 32.4, -2.00694, -33.3, 14.7, 0.193058, -25.8, 14.7, 0.193058, -22.5, 16.8, 0.193058, -22.5, 16.8, 0.193058, -25.8, 24.6, -1.20694, -7.2, 24.6, -0.00694132, -5.1, 29.7, -0.00694132, -5.1, 29.7, -1.20694, -7.2, 24.6, -1.20694, -7.2, 29.7, -1.20694, -7.2, 32.4, -2.00694, -8.1, 32.4, -2.00694, -16.2, 26.8286, -2.00694, -9.77143, 31.05, -2.00694, -7.65, 18, -2.00694, -9.3, 18, -2.00694, -7.2, 23.4, -2.00694, -6.9, 18, -2.00694, -9.3, 23.4, -2.00694, -6.9, 24.6, -1.20694, -7.2, 32.4, -2.00694, -16.2, 32.4, -2.00694, -24, 18, -2.00694, -21.6, 26.8286, -2.00694, -9.77143, 30.9, -2.00694, 0, 30.9, -2.00694, 7.5, 32.4, -2.00694, 7.8, 32.4, -2.00694, -0.299999, 32.4, -2.00694, -24, 18, -2.00694, -24, 18, -2.00694, -21.6, 30.9, -2.00694, -7.2, 30.9, -2.00694, 0, 32.4, -2.00694, -0.299999, 32.4, -2.00694, -8.1, 18, -2.00694, -21.6, 15.9, -2.00694, -21.3, 16.2, -2.00694, -9.6, 18, -2.00694, -9.3, 29.7, -1.20694, -7.2, 30.9, -2.00694, -7.2, 32.4, -2.00694, -8.1, 31.05, -2.00694, -7.65, 1.8, -2.00694, -15.3, 1.2, -2.00694, -15, 1.5, -2.00694, -14.1, 14.7, -2.00694, -9.6, 16.2, -2.00694, -9.6, 15.9, -2.00694, -21.3, 13.8, -2.00694, -21.3, 13.8, -2.00694, -21.3, 13.5, -2.00694, -21.9, 1.8, -2.00694, -18, 1.8, -2.00694, -15.3, 14.4, -2.00694, -9, 14.7, -2.00694, -9.6, 13.8, -2.00694, -21.3, 1.8, -2.00694, -15.3, 1.5, -2.00694, -14.1, 13.5, -2.00694, -21.9, 1.2, -2.00694, -18.3, 1.8, -2.00694, -18, -1.5, -2.00694, 14.4, -1.2, -2.00694, 14.7, 1.2, -2.00694, 14.7, 1.5, -2.00694, 13.8, 1.5, -2.00694, -14.1, 1.2, -2.00694, -15, -1.2, -2.00694, -15, -14.7, -2.00694, 6.3, -14.4, -2.00694, 9, -1.5, -2.00694, 14.4, -17.7, -2.00694, -6.3, -18, -2.00694, -7.8, -23.1, -2.00694, -7.8, -23.1, -2.00694, -1.2, 1.5, -2.00694, -14.1, -1.2, -2.00694, -15, -14.4, -2.00694, -8.7, -14.7, -2.00694, 6.3, -1.5, -2.00694, 14.4, 1.5, -2.00694, 13.8, -23.1, -2.00694, 5.4, -17.4, -2.00694, 6.3, -14.7, -2.00694, 6.3, -14.7, -2.00694, -6.3, -17.7, -2.00694, -6.3, -23.1, -2.00694, -1.2, -14.4, -2.00694, -8.7, -14.7, -2.00694, -6.3, -14.7, -2.00694, 6.3, 23.4, -2.00694, -6.9, 18, -2.00694, -7.2, 17.7, -2.00694, -6.6, 23.4, -2.00694, 0.300003, 17.4, -2.00694, 6.3, 17.7, -2.00694, 7.8, 23.4, -2.00694, 7.8, 23.4, -2.00694, 0.300003, 1.5, -2.00694, -14.1, 1.5, -2.00694, 13.8, 14.4, -2.00694, 9, 14.7, -2.00694, 6.3, 14.7, -2.00694, -6.6, 14.4, -2.00694, -9, 14.7, -2.00694, 6.3, 17.4, -2.00694, 6.3, 23.4, -2.00694, 0.300003, 17.7, -2.00694, -6.6, 14.7, -2.00694, -6.6, -24.3, -0.00694132, -10.5, -27, -0.00694132, -10.5, -29.4, -0.00694132, -10.2, -29.4, -0.00694132, -3.3, -24.3, -0.00694132, -3.6, -24.3, -0.206942, 3.6, -24.3, -0.00694132, -3.6, -29.4, -0.00694132, -3.3, -29.4, -0.206942, 3.6, -24.3, -0.00694132, 2.16, -24.3, -1.20694, 5.7, -24.3, -0.206942, 3.6, -29.4, -0.206942, 3.6, -29.4, -1.20694, 5.7, -29.4, -1.20694, 5.7, -30.6, -2.00694, 5.7, -32.1, -2.00694, 6.9, -30.75, -2.00694, 6.3, -17.7, -2.00694, 9.3, -17.4, -2.00694, 6.3, -23.1, -2.00694, 5.4, -24.3, -1.20694, 5.7, -22.98, -2.00694, 6.42, -24.3, -1.20694, 5.7, -29.4, -1.20694, 5.7, -32.1, -2.00694, 6.9, -32.1, -2.00694, 15, -25.4143, -2.00694, 7.02857, -30.75, -2.00694, 6.3, -30.6, -2.00694, -1.8, -30.6, -2.00694, -9, -32.1, -2.00694, -9.3, -32.1, -2.00694, -1.2, -18.3, -2.00694, 21.6, -16.2, -2.00694, 21.6, -16.2, -2.00694, 9.6, -17.7, -2.00694, 9.3, -30.6, -2.00694, 5.7, -30.6, -2.00694, -1.8, -32.1, -2.00694, -1.2, -32.1, -2.00694, 6.9, -32.1, -2.00694, 23.4, -18.6, -2.00694, 23.7, -18.3, -2.00694, 21.6, -17.7, -2.00694, 9.3, -24.3, -1.20694, 5.7, -32.1, -2.00694, 15, -22.98, -2.00694, 6.42, -25.4143, -2.00694, 7.02857, 29.7, -0.00694132, -5.1, 24.6, -0.00694132, -5.1, 24.6, -0.00694132, 1.8, 29.7, -0.00694132, 1.8, 29.7, -0.00694132, 8.7, 29.7, -0.00694132, 1.8, 24.6, -0.00694132, 1.8, 24.6, -0.00694132, 8.7, 32.4, -2.00694, 7.8, 30.9, -2.00694, 7.5, 30.6, -2.00694, 9.9, 32.4, -2.00694, 14.1, 24.3, -2.00694, 33.3, 32.4, -2.00694, 33.3, 32.4, -2.00694, 26.7, 23.4, -2.00694, 7.8, 17.7, -2.00694, 7.8, 17.7, -2.00694, 9.3, 23.7, -2.00694, 9.9, 24.3, -2.00694, 33.3, 32.4, -2.00694, 26.7, 32.4, -2.00694, 20.4, 23.7, -2.00694, 9.9, 16.2, -2.00694, 9.6, 16.2, -2.00694, 33.3, 23.7, -2.00694, 9.9, 17.7, -2.00694, 9.3, 16.2, -2.00694, 9.6, 32.4, -2.00694, 14.1, 30.6, -2.00694, 9.9, 23.7, -2.00694, 9.9, 32.4, -2.00694, 20.4, -15, -2.00694, 9.6, -1.5, -2.00694, 14.4, -14.4, -2.00694, 9, 1.5, -2.00694, 13.8, 1.2, -2.00694, 14.7, 1.8, -2.00694, 15.3, 15, -2.00694, 9.6, 14.4, -2.00694, 9, -1.8, -2.00694, 15, -1.2, -2.00694, 14.7, -1.5, -2.00694, 14.4, -15, -2.00694, 9.6, -16.2, -2.00694, 9.6, -16.2, -2.00694, 21.6, -14.4, -2.00694, 21.6, -14.1, -2.00694, 22.2, -1.8, -2.00694, 17.7, -1.8, -2.00694, 15, -15, -2.00694, 9.6, -14.4, -2.00694, 21.6, -14.1, -2.00694, 22.2, -1.8, -2.00694, 15, -1.5, -2.00694, 14.4, -14.1, -2.00694, 22.2, -1.2, -2.00694, 18, -1.8, -2.00694, 17.7, 16.2, -2.00694, 9.6, 15, -2.00694, 9.6, 1.8, -2.00694, 15.3, 1.8, -2.00694, 17.7, 8.1, -2.00694, 33.3, 16.2, -2.00694, 33.3, 1.8, -2.00694, 17.7, 0, -2.00694, 18, 0, -2.00694, 33.3, 8.1, -2.00694, 33.3, -14.1, -2.00694, 26.7, -16.2, -2.00694, 27, -16.2, -2.00694, 33.3, -8.1, -2.00694, 33.3, -14.1, -2.00694, 22.2, -14.1, -2.00694, 26.7, -8.1, -2.00694, 33.3, 0, -2.00694, 33.3, 0, -2.00694, 18, -1.2, -2.00694, 18, -17.4, 0.193058, 22.8, -17.4, 0.193058, 25.8, -15.3, 0.193058, 25.8, -15.3, 0.193058, 22.8, -16.2, -2.00694, 33.3, -16.2, -2.00694, 27, -18.6, -2.00694, 26.7, -24.3, -2.00694, 33.3, -24.3, -2.00694, 33.3, -18.6, -2.00694, 26.7, -18.6, -2.00694, 23.7, -32.1, -2.00694, 23.4, -32.1, -2.00694, 33.3 )
polygons = [ PoolIntArray( 3, 2, 0 ), PoolIntArray( 0, 2, 1 ), PoolIntArray( 7, 6, 4 ), PoolIntArray( 4, 6, 5 ), PoolIntArray( 11, 10, 8 ), PoolIntArray( 8, 10, 9 ), PoolIntArray( 13, 12, 14 ), PoolIntArray( 14, 12, 15 ), PoolIntArray( 19, 18, 16 ), PoolIntArray( 16, 18, 17 ), PoolIntArray( 21, 20, 22 ), PoolIntArray( 22, 20, 23 ), PoolIntArray( 27, 26, 24 ), PoolIntArray( 24, 26, 25 ), PoolIntArray( 29, 28, 30 ), PoolIntArray( 30, 28, 31 ), PoolIntArray( 35, 34, 32 ), PoolIntArray( 32, 34, 33 ), PoolIntArray( 39, 38, 36 ), PoolIntArray( 36, 38, 37 ), PoolIntArray( 43, 42, 40 ), PoolIntArray( 40, 42, 41 ), PoolIntArray( 45, 44, 46 ), PoolIntArray( 46, 44, 47 ), PoolIntArray( 51, 50, 48 ), PoolIntArray( 48, 50, 49 ), PoolIntArray( 53, 52, 54 ), PoolIntArray( 54, 52, 55 ), PoolIntArray( 57, 56, 58 ), PoolIntArray( 58, 56, 59 ), PoolIntArray( 63, 62, 60 ), PoolIntArray( 60, 62, 61 ), PoolIntArray( 65, 64, 66 ), PoolIntArray( 66, 64, 67 ), PoolIntArray( 71, 70, 68 ), PoolIntArray( 68, 70, 69 ), PoolIntArray( 73, 72, 74 ), PoolIntArray( 74, 72, 75 ), PoolIntArray( 79, 78, 76 ), PoolIntArray( 76, 78, 77 ), PoolIntArray( 81, 80, 82 ), PoolIntArray( 82, 80, 83 ), PoolIntArray( 85, 84, 86 ), PoolIntArray( 86, 84, 87 ), PoolIntArray( 91, 90, 88 ), PoolIntArray( 88, 90, 89 ), PoolIntArray( 93, 92, 94 ), PoolIntArray( 94, 92, 95 ), PoolIntArray( 99, 98, 96 ), PoolIntArray( 96, 98, 97 ), PoolIntArray( 103, 102, 100 ), PoolIntArray( 100, 102, 101 ), PoolIntArray( 107, 106, 104 ), PoolIntArray( 104, 106, 105 ), PoolIntArray( 109, 108, 110 ), PoolIntArray( 110, 108, 111 ), PoolIntArray( 115, 114, 112 ), PoolIntArray( 112, 114, 113 ), PoolIntArray( 117, 116, 118 ), PoolIntArray( 118, 116, 119 ), PoolIntArray( 121, 120, 122 ), PoolIntArray( 122, 120, 123 ), PoolIntArray( 125, 124, 126 ), PoolIntArray( 126, 124, 127 ), PoolIntArray( 129, 128, 130 ), PoolIntArray( 130, 128, 131 ), PoolIntArray( 133, 132, 134 ), PoolIntArray( 134, 132, 135 ), PoolIntArray( 138, 137, 136 ), PoolIntArray( 140, 139, 141 ), PoolIntArray( 141, 139, 144 ), PoolIntArray( 141, 144, 143 ), PoolIntArray( 141, 143, 142 ), PoolIntArray( 147, 146, 145 ), PoolIntArray( 150, 149, 148 ), PoolIntArray( 152, 151, 153 ), PoolIntArray( 153, 151, 154 ), PoolIntArray( 154, 151, 155 ), PoolIntArray( 155, 151, 156 ), PoolIntArray( 158, 157, 159 ), PoolIntArray( 159, 157, 160 ), PoolIntArray( 162, 161, 163 ), PoolIntArray( 163, 161, 164 ), PoolIntArray( 166, 165, 167 ), PoolIntArray( 167, 165, 168 ), PoolIntArray( 168, 165, 170 ), PoolIntArray( 168, 170, 169 ), PoolIntArray( 172, 171, 173 ), PoolIntArray( 173, 171, 174 ), PoolIntArray( 176, 175, 177 ), PoolIntArray( 177, 175, 179 ), PoolIntArray( 177, 179, 178 ), PoolIntArray( 183, 182, 180 ), PoolIntArray( 180, 182, 181 ), PoolIntArray( 187, 186, 184 ), PoolIntArray( 184, 186, 185 ), PoolIntArray( 188, 192, 189 ), PoolIntArray( 189, 192, 193 ), PoolIntArray( 193, 192, 190 ), PoolIntArray( 190, 192, 191 ), PoolIntArray( 196, 195, 194 ), PoolIntArray( 199, 198, 203 ), PoolIntArray( 203, 198, 197 ), PoolIntArray( 203, 197, 200 ), PoolIntArray( 200, 197, 202 ), PoolIntArray( 200, 202, 201 ), PoolIntArray( 204, 207, 205 ), PoolIntArray( 205, 207, 206 ), PoolIntArray( 210, 209, 208 ), PoolIntArray( 212, 211, 213 ), PoolIntArray( 213, 211, 214 ), PoolIntArray( 217, 216, 218 ), PoolIntArray( 218, 216, 215 ), PoolIntArray( 219, 222, 220 ), PoolIntArray( 220, 222, 221 ), PoolIntArray( 224, 223, 225 ), PoolIntArray( 227, 226, 228 ), PoolIntArray( 228, 226, 229 ), PoolIntArray( 231, 230, 232 ), PoolIntArray( 232, 230, 233 ), PoolIntArray( 235, 234, 236 ), PoolIntArray( 236, 234, 237 ), PoolIntArray( 237, 234, 238 ), PoolIntArray( 241, 240, 239 ), PoolIntArray( 243, 242, 244 ), PoolIntArray( 244, 242, 245 ), PoolIntArray( 248, 247, 246 ), PoolIntArray( 251, 250, 249 ), PoolIntArray( 253, 252, 254 ), PoolIntArray( 254, 252, 255 ), PoolIntArray( 257, 256, 258 ), PoolIntArray( 258, 256, 259 ), PoolIntArray( 259, 256, 260 ), PoolIntArray( 260, 256, 261 ), PoolIntArray( 263, 262, 264 ), PoolIntArray( 264, 262, 267 ), PoolIntArray( 264, 267, 266 ), PoolIntArray( 264, 266, 265 ), PoolIntArray( 269, 268, 270 ), PoolIntArray( 272, 271, 273 ), PoolIntArray( 273, 271, 274 ), PoolIntArray( 276, 275, 277 ), PoolIntArray( 277, 275, 278 ), PoolIntArray( 283, 282, 284 ), PoolIntArray( 284, 282, 281 ), PoolIntArray( 284, 281, 280 ), PoolIntArray( 284, 280, 279 ), PoolIntArray( 286, 285, 287 ), PoolIntArray( 287, 285, 288 ), PoolIntArray( 288, 285, 289 ), PoolIntArray( 291, 290, 292 ), PoolIntArray( 292, 290, 294 ), PoolIntArray( 292, 294, 293 ), PoolIntArray( 295, 298, 299 ), PoolIntArray( 299, 298, 297 ), PoolIntArray( 299, 297, 296 ), PoolIntArray( 303, 302, 300 ), PoolIntArray( 300, 302, 301 ), PoolIntArray( 304, 307, 305 ), PoolIntArray( 305, 307, 306 ), PoolIntArray( 311, 310, 312 ), PoolIntArray( 312, 310, 309 ), PoolIntArray( 312, 309, 308 ), PoolIntArray( 313, 317, 314 ), PoolIntArray( 314, 317, 318 ), PoolIntArray( 318, 317, 315 ), PoolIntArray( 315, 317, 316 ), PoolIntArray( 320, 319, 321 ), PoolIntArray( 321, 319, 322 ), PoolIntArray( 325, 324, 326 ), PoolIntArray( 326, 324, 323 ), PoolIntArray( 328, 327, 329 ), PoolIntArray( 329, 327, 330 ), PoolIntArray( 335, 337, 338 ), PoolIntArray( 338, 337, 334 ), PoolIntArray( 338, 334, 336 ), PoolIntArray( 336, 334, 333 ), PoolIntArray( 336, 333, 332 ), PoolIntArray( 336, 332, 331 ), PoolIntArray( 342, 341, 339 ), PoolIntArray( 339, 341, 340 ), PoolIntArray( 346, 345, 343 ), PoolIntArray( 343, 345, 344 ), PoolIntArray( 348, 347, 349 ), PoolIntArray( 349, 347, 350 ), PoolIntArray( 353, 352, 351 ), PoolIntArray( 355, 354, 356 ), PoolIntArray( 356, 354, 357 ), PoolIntArray( 359, 358, 360 ), PoolIntArray( 360, 358, 363 ), PoolIntArray( 360, 363, 361 ), PoolIntArray( 361, 363, 362 ), PoolIntArray( 366, 365, 364 ), PoolIntArray( 368, 367, 369 ), PoolIntArray( 369, 367, 370 ), PoolIntArray( 373, 372, 371 ), PoolIntArray( 375, 374, 376 ), PoolIntArray( 376, 374, 378 ), PoolIntArray( 376, 378, 377 ), PoolIntArray( 381, 380, 379 ), PoolIntArray( 383, 382, 384 ), PoolIntArray( 384, 382, 385 ), PoolIntArray( 388, 387, 386 ), PoolIntArray( 390, 389, 391 ), PoolIntArray( 391, 389, 392 ), PoolIntArray( 392, 389, 393 ), PoolIntArray( 396, 395, 394 ), PoolIntArray( 398, 397, 399 ), PoolIntArray( 399, 397, 400 ), PoolIntArray( 400, 397, 401 ), PoolIntArray( 401, 397, 402 ), PoolIntArray( 404, 403, 405 ), PoolIntArray( 405, 403, 406 ), PoolIntArray( 408, 407, 409 ), PoolIntArray( 409, 407, 410 ), PoolIntArray( 412, 411, 413 ), PoolIntArray( 413, 411, 414 ), PoolIntArray( 414, 411, 416 ), PoolIntArray( 414, 416, 415 ), PoolIntArray( 420, 419, 417 ), PoolIntArray( 417, 419, 418 ), PoolIntArray( 422, 421, 423 ), PoolIntArray( 423, 421, 424 ), PoolIntArray( 426, 425, 427 ), PoolIntArray( 427, 425, 429 ), PoolIntArray( 427, 429, 428 ) ]

[node name="Battle" type="Spatial"]
script = ExtResource( 8 )

[node name="Player" parent="." instance=ExtResource( 7 )]
transform = Transform( 1, 0, 0, 0, 1, 0, 0, 0, 1, 0, -2, 12.5969 )

[node name="Environment" type="Spatial" parent="."]

[node name="DirectionalLight" type="DirectionalLight" parent="Environment"]
transform = Transform( 1, 0, 0, 0, 0.866025, 0.5, 0, -0.5, 0.866025, 0, 13, 0 )
shadow_enabled = true

[node name="Navigation" type="Navigation" parent="."]

[node name="NavigationMeshInstance" type="NavigationMeshInstance" parent="Navigation"]
transform = Transform( 1, 0, 0, 0, 1, 0, 0, 0, 1, 0, -0.593059, 0 )
navmesh = SubResource( 1 )

[node name="Blockout" type="CSGCombiner" parent="Navigation/NavigationMeshInstance"]
transform = Transform( 1, 0, 0, 0, 1, 0, 0, 0, 1, 0, 0.593059, 0 )
use_collision = true

[node name="Floor" type="CSGBox" parent="Navigation/NavigationMeshInstance/Blockout"]
transform = Transform( 1, 0, 0, 0, 1, 0, 0, 0, 1, 0, -1, 0 )
width = 72.0
height = 8.0
depth = 72.0
material = ExtResource( 4 )

[node name="FloorRemover" type="CSGBox" parent="Navigation/NavigationMeshInstance/Blockout/Floor"]
transform = Transform( 1, 0, 0, 0, 1, 0, 0, 0, 1, 0, 1, 0 )
operation = 2
width = 66.0
height = 6.0
depth = 68.0
material = ExtResource( 4 )

[node name="Box7" type="CSGBox" parent="Navigation/NavigationMeshInstance/Blockout"]
transform = Transform( 1, 0, 0, 0, 1, 0, 0, 0, 1, -16.1186, 3.183, -7.75461 )
width = 2.04308
height = 12.2295
depth = 1.6649
material = ExtResource( 3 )

[node name="Box8" type="CSGBox" parent="Navigation/NavigationMeshInstance/Blockout"]
transform = Transform( 1, 0, 0, 0, 1, 0, 0, 0, 1, 16.09, 3.183, -8.04728 )
width = 2.04308
height = 12.2295
depth = 1.6649
material = ExtResource( 3 )

[node name="Box9" type="CSGBox" parent="Navigation/NavigationMeshInstance/Blockout"]
transform = Transform( 1, 0, 0, 0, 1, 0, 0, 0, 1, 16.0272, 3.183, 7.89065 )
width = 2.04308
height = 12.2295
depth = 1.6649
material = ExtResource( 3 )

[node name="Box10" type="CSGBox" parent="Navigation/NavigationMeshInstance/Blockout"]
transform = Transform( 1, 0, 0, 0, 1, 0, 0, 0, 1, -16.0372, 3.183, 7.89065 )
width = 2.04308
height = 12.2295
depth = 1.6649
material = ExtResource( 3 )

[node name="Box11" type="CSGBox" parent="Navigation/NavigationMeshInstance/Blockout"]
transform = Transform( 1, 0, 0, 0, 1, 0, 0, 0, 1, -0.0371914, 3.183, 16.4031 )
width = 2.04308
height = 12.2295
depth = 1.6649
material = ExtResource( 3 )

[node name="Box12" type="CSGBox" parent="Navigation/NavigationMeshInstance/Blockout"]
transform = Transform( 1, 0, 0, 0, 1, 0, 0, 0, 1, -0.0371914, 3.183, -16.5969 )
width = 2.04308
height = 12.2295
depth = 1.6649
material = ExtResource( 3 )

[node name="Box13" type="CSGBox" parent="Navigation/NavigationMeshInstance/Blockout"]
transform = Transform( 1, 0, 0, 0, 1, 0, 0, 0, 1, 15.8155, -1.85497, -24.0793 )
width = 2.99748
height = 2.29935
depth = 4.05413
material = ExtResource( 3 )

[node name="Box14" type="CSGBox" parent="Navigation/NavigationMeshInstance/Blockout"]
transform = Transform( 1, 0, 0, 0, 1, 0, 0, 0, 1, -16.2067, -1.85498, 24.2758 )
width = 2.99748
height = 2.29935
depth = 4.0
material = ExtResource( 3 )

[node name="Box16" type="CSGBox" parent="Navigation/NavigationMeshInstance/Blockout"]
transform = Transform( -0.00701617, 0, 0.999975, 0, 1, 0, -0.999975, 0, -0.00701617, -26.9012, -2, -1.80227 )
width = 6.0
depth = 6.0
material = ExtResource( 3 )

[node name="Box17" type="CSGBox" parent="Navigation/NavigationMeshInstance/Blockout"]
transform = Transform( -0.00701617, 0, 0.999975, 0, 1, 0, -0.999975, 0, -0.00701617, -26.9462, -2, -7.80234 )
width = 6.0
depth = 6.0
material = ExtResource( 3 )

[node name="Ramp3" type="CSGPolygon" parent="Navigation/NavigationMeshInstance/Blockout"]
transform = Transform( -0.00701617, 0, 0.999975, 0, 1, 0, -0.999975, 0, -0.00701617, -23.8656, -3, 3.17864 )
polygon = PoolVector2Array( -4, 0, 0, 2, 2, 2, 2, 0 )
depth = 6.0
material = ExtResource( 1 )

[node name="Box18" type="CSGBox" parent="Navigation/NavigationMeshInstance/Blockout"]
transform = Transform( 0.00701626, 0, -0.999975, 0, 1, 0, 0.999975, 0, 0.00701626, 27.0895, -2, 0.178573 )
width = 6.0
depth = 6.0
material = ExtResource( 3 )

[node name="Box19" type="CSGBox" parent="Navigation/NavigationMeshInstance/Blockout"]
transform = Transform( 0.00701626, 0, -0.999975, 0, 1, 0, 0.999975, 0, 0.00701626, 27.1344, -2, 6.17864 )
width = 6.0
depth = 6.0
material = ExtResource( 3 )

[node name="Ramp4" type="CSGPolygon" parent="Navigation/NavigationMeshInstance/Blockout"]
transform = Transform( 0.00701626, 0, -0.999975, 0, 1, 0, 0.999975, 0, 0.00701626, 24.0538, -3, -4.80234 )
polygon = PoolVector2Array( -4, 0, 0, 2, 2, 2, 2, 0 )
depth = 6.0
material = ExtResource( 1 )

[node name="Spawner" type="Spatial" parent="."]
script = ExtResource( 2 )
Enemy = ExtResource( 6 )

[node name="Timer" type="Timer" parent="Spawner"]
autostart = true

[node name="Waves" type="Node" parent="Spawner"]

[node name="Wave1" type="Node" parent="Spawner/Waves"]
script = ExtResource( 5 )
num_enemies = 50
second_between_spawns = 0.5

[node name="Wave2" type="Node" parent="Spawner/Waves"]
script = ExtResource( 5 )
num_enemies = 50
second_between_spawns = 0.4

[node name="Wave3" type="Node" parent="Spawner/Waves"]
script = ExtResource( 5 )
num_enemies = 50
second_between_spawns = 0.3

[connection signal="timeout" from="Spawner/Timer" to="Spawner" method="_on_Timer_timeout"]
